EESchema Schematic File Version 2
LIBS:power
LIBS:device
LIBS:kipart
LIBS:transistors
LIBS:conn
LIBS:linear
LIBS:regul
LIBS:74xx
LIBS:cmos4000
LIBS:adc-dac
LIBS:memory
LIBS:xilinx
LIBS:microcontrollers
LIBS:dsp
LIBS:microchip
LIBS:analog_switches
LIBS:motorola
LIBS:texas
LIBS:intel
LIBS:audio
LIBS:interface
LIBS:digital-audio
LIBS:philips
LIBS:display
LIBS:cypress
LIBS:siliconi
LIBS:opto
LIBS:atmel
LIBS:contrib
LIBS:valves
LIBS:stm32
LIBS:stmicroelectronics
LIBS:solary2-cache
EELAYER 25 0
EELAYER END
$Descr A4 11693 8268
encoding utf-8
Sheet 1 1
Title "solary2"
Date ""
Rev ""
Comp "mike7b4"
Comment1 ""
Comment2 ""
Comment3 ""
Comment4 ""
$EndDescr
$Comp
L C C1
U 1 1 5766DF9B
P 9450 1550
F 0 "C1" H 9565 1596 50  0000 L CNN
F 1 "100nF" H 9565 1505 50  0000 L CNN
F 2 "Capacitors_SMD:C_0603_HandSoldering" H 9488 1400 50  0001 C CNN
F 3 "" H 9450 1550 50  0000 C CNN
	1    9450 1550
	1    0    0    -1  
$EndComp
$Comp
L C C2
U 1 1 5766E0FD
P 9950 1550
F 0 "C2" H 10065 1596 50  0000 L CNN
F 1 "100nF" H 10065 1505 50  0000 L CNN
F 2 "Capacitors_SMD:C_0603_HandSoldering" H 9988 1400 50  0001 C CNN
F 3 "" H 9950 1550 50  0000 C CNN
	1    9950 1550
	1    0    0    -1  
$EndComp
$Comp
L C C3
U 1 1 5766E144
P 10450 1550
F 0 "C3" H 10565 1596 50  0000 L CNN
F 1 "100nF" H 10565 1505 50  0000 L CNN
F 2 "Capacitors_SMD:C_0603_HandSoldering" H 10488 1400 50  0001 C CNN
F 3 "" H 10450 1550 50  0000 C CNN
	1    10450 1550
	1    0    0    -1  
$EndComp
$Comp
L +12V #PWR01
U 1 1 5766E18E
P 1150 1400
F 0 "#PWR01" H 1150 1250 50  0001 C CNN
F 1 "+12V" H 1165 1573 50  0000 C CNN
F 2 "" H 1150 1400 50  0000 C CNN
F 3 "" H 1150 1400 50  0000 C CNN
	1    1150 1400
	0    -1   -1   0   
$EndComp
$Comp
L +3V3 #PWR02
U 1 1 5766E1AE
P 9950 1250
F 0 "#PWR02" H 9950 1100 50  0001 C CNN
F 1 "+3V3" H 9950 1400 50  0000 C CNN
F 2 "" H 9950 1250 50  0000 C CNN
F 3 "" H 9950 1250 50  0000 C CNN
	1    9950 1250
	1    0    0    -1  
$EndComp
$Comp
L GND #PWR03
U 1 1 5766E1CE
P 9950 1850
F 0 "#PWR03" H 9950 1600 50  0001 C CNN
F 1 "GND" H 9955 1677 50  0000 C CNN
F 2 "" H 9950 1850 50  0000 C CNN
F 3 "" H 9950 1850 50  0000 C CNN
	1    9950 1850
	1    0    0    -1  
$EndComp
$Comp
L STM32F042K6Tx U2
U 1 1 5766E2FF
P 5375 4875
F 0 "U2" H 5375 3589 50  0000 C CNN
F 1 "STM32F042K6Tx" H 5375 3498 50  0000 C CNN
F 2 "Housings_QFP:LQFP-32_7x7mm_Pitch0.8mm" H 5375 3407 50  0000 C CNN
F 3 "" H 5375 4875 50  0000 C CNN
	1    5375 4875
	1    0    0    -1  
$EndComp
$Comp
L MCP1755S U1
U 1 1 5766FA05
P 2050 1400
F 0 "U1" H 2050 1680 60  0000 C CNN
F 1 "MCP1755S" H 2050 1786 60  0000 C CNN
F 2 "TO_SOT_Packages_SMD:SOT-223" H 750 3800 60  0001 C CNN
F 3 "" H 750 3800 60  0001 C CNN
	1    2050 1400
	-1   0    0    1   
$EndComp
$Comp
L MCP1824 U3
U 1 1 57670312
P 3750 1275
F 0 "U3" H 3750 1762 60  0000 C CNN
F 1 "MCP1824" H 3750 1656 60  0000 C CNN
F 2 "TO_SOT_Packages_SMD:SOT-23-5" V 3800 1275 60  0001 C CNN
F 3 "" V 3800 1275 60  0001 C CNN
	1    3750 1275
	1    0    0    -1  
$EndComp
$Comp
L +3V3 #PWR04
U 1 1 576705EA
P 5375 3425
F 0 "#PWR04" H 5375 3275 50  0001 C CNN
F 1 "+3V3" H 5390 3598 50  0000 C CNN
F 2 "" H 5375 3425 50  0000 C CNN
F 3 "" H 5375 3425 50  0000 C CNN
	1    5375 3425
	1    0    0    -1  
$EndComp
$Comp
L GND #PWR05
U 1 1 5767067E
P 5325 6325
F 0 "#PWR05" H 5325 6075 50  0001 C CNN
F 1 "GND" H 5330 6152 50  0000 C CNN
F 2 "" H 5325 6325 50  0000 C CNN
F 3 "" H 5325 6325 50  0000 C CNN
	1    5325 6325
	1    0    0    -1  
$EndComp
$Comp
L +5V #PWR06
U 1 1 57670C5A
P 2750 1350
F 0 "#PWR06" H 2750 1200 50  0001 C CNN
F 1 "+5V" H 2765 1523 50  0000 C CNN
F 2 "" H 2750 1350 50  0000 C CNN
F 3 "" H 2750 1350 50  0000 C CNN
	1    2750 1350
	1    0    0    -1  
$EndComp
$Comp
L C C4
U 1 1 57670D9A
P 1450 1075
F 0 "C4" H 1565 1121 50  0000 L CNN
F 1 "4.7uF" H 1565 1030 50  0000 L CNN
F 2 "Capacitors_SMD:C_0805_HandSoldering" H 1488 925 50  0001 C CNN
F 3 "" H 1450 1075 50  0000 C CNN
	1    1450 1075
	1    0    0    -1  
$EndComp
$Comp
L C C5
U 1 1 57670FB7
P 2450 850
F 0 "C5" H 2565 896 50  0000 L CNN
F 1 "1uF" H 2565 805 50  0000 L CNN
F 2 "Capacitors_SMD:C_0805_HandSoldering" H 2488 700 50  0001 C CNN
F 3 "" H 2450 850 50  0000 C CNN
	1    2450 850 
	0    1    1    0   
$EndComp
$Comp
L CONN_01X03 P1
U 1 1 57671350
P 850 2050
F 0 "P1" H 769 1725 50  0000 C CNN
F 1 "SWITCH" H 769 1816 50  0000 C CNN
F 2 "Pin_Headers:Pin_Header_Straight_1x03" H 850 2050 50  0001 C CNN
F 3 "" H 850 2050 50  0000 C CNN
	1    850  2050
	-1   0    0    1   
$EndComp
$Comp
L CONN_01X03 P3
U 1 1 576714BA
P 1200 6500
F 0 "P3" H 1119 6175 50  0000 C CNN
F 1 "SWD" H 1119 6266 50  0000 C CNN
F 2 "Pin_Headers:Pin_Header_Straight_1x03" H 1200 6500 50  0001 C CNN
F 3 "" H 1200 6500 50  0000 C CNN
	1    1200 6500
	-1   0    0    1   
$EndComp
$Comp
L GND #PWR07
U 1 1 57671772
P 1650 6650
F 0 "#PWR07" H 1650 6400 50  0001 C CNN
F 1 "GND" H 1655 6477 50  0000 C CNN
F 2 "" H 1650 6650 50  0000 C CNN
F 3 "" H 1650 6650 50  0000 C CNN
	1    1650 6650
	1    0    0    -1  
$EndComp
$Comp
L CONN_01X02 P2
U 1 1 57671877
P 850 2550
F 0 "P2" H 769 2275 50  0000 C CNN
F 1 "LiPo" H 769 2366 50  0000 C CNN
F 2 "Pin_Headers:Pin_Header_Straight_1x02" H 850 2550 50  0001 C CNN
F 3 "" H 850 2550 50  0000 C CNN
	1    850  2550
	-1   0    0    1   
$EndComp
$Comp
L GND #PWR08
U 1 1 576719B1
P 1150 2700
F 0 "#PWR08" H 1150 2450 50  0001 C CNN
F 1 "GND" H 1155 2527 50  0000 C CNN
F 2 "" H 1150 2700 50  0000 C CNN
F 3 "" H 1150 2700 50  0000 C CNN
	1    1150 2700
	1    0    0    -1  
$EndComp
Text GLabel 4725 1575 2    60   Input ~ 0
VIN2
Text GLabel 1150 2050 2    60   Input ~ 0
VIN2
$Comp
L +BATT #PWR09
U 1 1 57671FFF
P 1125 2500
F 0 "#PWR09" H 1125 2350 50  0001 C CNN
F 1 "+BATT" V 1140 2628 50  0000 L CNN
F 2 "" H 1125 2500 50  0000 C CNN
F 3 "" H 1125 2500 50  0000 C CNN
	1    1125 2500
	0    1    1    0   
$EndComp
Text GLabel 8675 5575 2    60   Input ~ 0
SWDCLK
Text GLabel 1550 6500 2    60   Input ~ 0
SWDCLK
Text GLabel 8675 5475 2    60   Input ~ 0
SWDIO
Text GLabel 1550 6400 2    60   Input ~ 0
SWDIO
$Comp
L GND #PWR010
U 1 1 576729A3
P 4700 1275
F 0 "#PWR010" H 4700 1025 50  0001 C CNN
F 1 "GND" H 4705 1102 50  0000 C CNN
F 2 "" H 4700 1275 50  0000 C CNN
F 3 "" H 4700 1275 50  0000 C CNN
	1    4700 1275
	0    -1   -1   0   
$EndComp
$Comp
L +3V3 #PWR011
U 1 1 57672B25
P 3150 1425
F 0 "#PWR011" H 3150 1275 50  0001 C CNN
F 1 "+3V3" H 3165 1598 50  0000 C CNN
F 2 "" H 3150 1425 50  0000 C CNN
F 3 "" H 3150 1425 50  0000 C CNN
	1    3150 1425
	0    -1   -1   0   
$EndComp
Text GLabel 4400 1125 2    60   Input ~ 0
VIN2
$Comp
L C C7
U 1 1 57672D7F
P 4500 1425
F 0 "C7" H 4615 1471 50  0000 L CNN
F 1 "4.7uF" H 4615 1380 50  0000 L CNN
F 2 "Capacitors_SMD:C_0603_HandSoldering" H 4538 1275 50  0001 C CNN
F 3 "" H 4500 1425 50  0000 C CNN
	1    4500 1425
	1    0    0    -1  
$EndComp
$Comp
L GND #PWR012
U 1 1 5767336C
P 3200 1825
F 0 "#PWR012" H 3200 1575 50  0001 C CNN
F 1 "GND" H 3205 1652 50  0000 C CNN
F 2 "" H 3200 1825 50  0000 C CNN
F 3 "" H 3200 1825 50  0000 C CNN
	1    3200 1825
	1    0    0    -1  
$EndComp
$Comp
L C C6
U 1 1 576733A7
P 3200 1600
F 0 "C6" H 3315 1646 50  0000 L CNN
F 1 "1uF" H 3315 1555 50  0000 L CNN
F 2 "Capacitors_SMD:C_0603_HandSoldering" H 3238 1450 50  0001 C CNN
F 3 "" H 3200 1600 50  0000 C CNN
	1    3200 1600
	1    0    0    -1  
$EndComp
Text Notes 10100 1300 0    60   ~ 0
STM32 caps
$Comp
L CONN_02X04 P6
U 1 1 57674742
P 7850 1450
F 0 "P6" V 7804 1678 50  0000 L CNN
F 1 "ESP8216 Wifi" V 7895 1678 50  0000 L CNN
F 2 "Pin_Headers:Pin_Header_Straight_2x04" H 7850 250 50  0001 C CNN
F 3 "" H 7850 250 50  0000 C CNN
	1    7850 1450
	1    0    0    -1  
$EndComp
$Comp
L +3V3 #PWR013
U 1 1 57674C6E
P 8250 1300
F 0 "#PWR013" H 8250 1150 50  0001 C CNN
F 1 "+3V3" H 8265 1473 50  0000 C CNN
F 2 "" H 8250 1300 50  0000 C CNN
F 3 "" H 8250 1300 50  0000 C CNN
	1    8250 1300
	0    1    1    0   
$EndComp
$Comp
L GND #PWR014
U 1 1 57674CB1
P 7425 1600
F 0 "#PWR014" H 7425 1350 50  0001 C CNN
F 1 "GND" H 7430 1427 50  0000 C CNN
F 2 "" H 7425 1600 50  0000 C CNN
F 3 "" H 7425 1600 50  0000 C CNN
	1    7425 1600
	0    1    1    0   
$EndComp
Text GLabel 8200 1600 2    60   Input ~ 0
RF_TX
Text GLabel 8700 5175 2    60   Input ~ 0
RF_TX
Text GLabel 8700 5075 2    60   Input ~ 0
RF_RX
Text GLabel 7500 1300 0    60   Input ~ 0
RF_RX
Text GLabel 8225 1400 2    60   Input ~ 0
RF_RST
Text GLabel 8700 4475 2    60   Input ~ 0
RF_RST
Text GLabel 2300 2500 0    60   Input ~ 0
USBDP
Text GLabel 8675 5375 2    60   Input ~ 0
USBDP
Text GLabel 8675 5275 2    60   Input ~ 0
USBDM
Text GLabel 2300 2400 0    60   Input ~ 0
USBDM
Text GLabel 8200 1500 2    60   Input ~ 0
RF_CH_PD
Text GLabel 7525 1400 0    60   Input ~ 0
RF_GPIO0
Text GLabel 7525 1500 0    60   Input ~ 0
RF_GPIO2
NoConn ~ 3250 1125
NoConn ~ 2175 4175
$Comp
L USB_OTG P4
U 1 1 576837F8
P 2800 2500
F 0 "P4" V 2830 2688 50  0000 L CNN
F 1 "USB_OTG" V 2921 2688 50  0000 L CNN
F 2 "Connect:USB_Micro-B_10103594-0001LF" V 2750 2400 50  0001 C CNN
F 3 "" V 2750 2400 50  0000 C CNN
	1    2800 2500
	0    1    1    0   
$EndComp
$Comp
L FDS6930 U4
U 1 1 57684C63
P 7800 2575
F 0 "U4" H 7800 3015 60  0000 C CNN
F 1 "FDS6930" H 7800 2909 60  0000 C CNN
F 2 "Power_Integrations:SO-8" H 7400 2725 60  0001 C CNN
F 3 "" H 7400 2725 60  0001 C CNN
	1    7800 2575
	1    0    0    -1  
$EndComp
$Comp
L FDS6930 U5
U 1 1 57684CDD
P 9775 2575
F 0 "U5" H 9775 3015 60  0000 C CNN
F 1 "FDS6930" H 9775 2909 60  0000 C CNN
F 2 "Power_Integrations:SO-8" H 9375 2725 60  0001 C CNN
F 3 "" H 9375 2725 60  0001 C CNN
	1    9775 2575
	1    0    0    -1  
$EndComp
Text GLabel 8300 2625 2    60   Input ~ 0
LOAD_SW1
Text GLabel 2075 5075 0    60   Input ~ 0
LOAD_SW3
Text GLabel 2075 5175 0    60   Input ~ 0
LOAD_SW2
Text GLabel 8325 2425 2    60   Input ~ 0
LOAD_SW2
Text GLabel 2075 5275 0    60   Input ~ 0
LOAD_SW1
Text GLabel 10275 2625 2    60   Input ~ 0
LOAD_SW3
Text GLabel 8700 4975 2    60   Input ~ 0
SOLARY_PWM
Text GLabel 10275 2425 2    60   Input ~ 0
SOLARY_PWM
$Comp
L GND #PWR015
U 1 1 5768760E
P 8425 2725
F 0 "#PWR015" H 8425 2475 50  0001 C CNN
F 1 "GND" H 8430 2552 50  0000 C CNN
F 2 "" H 8425 2725 50  0000 C CNN
F 3 "" H 8425 2725 50  0000 C CNN
	1    8425 2725
	0    -1   -1   0   
$EndComp
$Comp
L GND #PWR016
U 1 1 57687697
P 8425 2525
F 0 "#PWR016" H 8425 2275 50  0001 C CNN
F 1 "GND" H 8430 2352 50  0000 C CNN
F 2 "" H 8425 2525 50  0000 C CNN
F 3 "" H 8425 2525 50  0000 C CNN
	1    8425 2525
	0    -1   -1   0   
$EndComp
$Comp
L GND #PWR017
U 1 1 576876D8
P 10325 2525
F 0 "#PWR017" H 10325 2275 50  0001 C CNN
F 1 "GND" H 10330 2352 50  0000 C CNN
F 2 "" H 10325 2525 50  0000 C CNN
F 3 "" H 10325 2525 50  0000 C CNN
	1    10325 2525
	0    -1   -1   0   
$EndComp
$Comp
L GND #PWR018
U 1 1 57687719
P 10300 2725
F 0 "#PWR018" H 10300 2475 50  0001 C CNN
F 1 "GND" H 10305 2552 50  0000 C CNN
F 2 "" H 10300 2725 50  0000 C CNN
F 3 "" H 10300 2725 50  0000 C CNN
	1    10300 2725
	0    -1   -1   0   
$EndComp
Text GLabel 7250 2475 0    60   Input ~ 0
LOAD3
Text GLabel 7250 2675 0    60   Input ~ 0
LOAD2
Text GLabel 9275 2675 0    60   Input ~ 0
LOAD1
Text GLabel 9275 2475 0    60   Input ~ 0
S-
$Comp
L CONN_01X02 P7
U 1 1 57688B29
P 1650 3200
F 0 "P7" H 1727 3241 50  0000 L CNN
F 1 "BAT" H 1727 3150 50  0000 L CNN
F 2 "Terminal_Blocks:TerminalBlock_Pheonix_MKDS1.5-2pol" H 1650 3200 50  0001 C CNN
F 3 "" H 1650 3200 50  0000 C CNN
	1    1650 3200
	1    0    0    -1  
$EndComp
$Comp
L CONN_01X02 P8
U 1 1 57688C17
P 10425 3850
F 0 "P8" H 10502 3891 50  0000 L CNN
F 1 "OUT1" H 10502 3800 50  0000 L CNN
F 2 "Terminal_Blocks:TerminalBlock_Pheonix_MKDS1.5-2pol" H 10425 3850 50  0001 C CNN
F 3 "" H 10425 3850 50  0000 C CNN
	1    10425 3850
	1    0    0    -1  
$EndComp
Text GLabel 10100 3800 0    60   Input ~ 0
LOAD1
$Comp
L +12V #PWR019
U 1 1 57689418
P 10150 3950
F 0 "#PWR019" H 10150 3800 50  0001 C CNN
F 1 "+12V" H 10165 4123 50  0000 C CNN
F 2 "" H 10150 3950 50  0000 C CNN
F 3 "" H 10150 3950 50  0000 C CNN
	1    10150 3950
	-1   0    0    1   
$EndComp
$Comp
L CONN_01X02 P9
U 1 1 5768A330
P 10425 4425
F 0 "P9" H 10502 4466 50  0000 L CNN
F 1 "OUT2" H 10502 4375 50  0000 L CNN
F 2 "Terminal_Blocks:TerminalBlock_Pheonix_MKDS1.5-2pol" H 10425 4425 50  0001 C CNN
F 3 "" H 10425 4425 50  0000 C CNN
	1    10425 4425
	1    0    0    -1  
$EndComp
Text GLabel 10100 4375 0    60   Input ~ 0
LOAD2
$Comp
L +12V #PWR020
U 1 1 5768A337
P 10150 4525
F 0 "#PWR020" H 10150 4375 50  0001 C CNN
F 1 "+12V" H 10165 4698 50  0000 C CNN
F 2 "" H 10150 4525 50  0000 C CNN
F 3 "" H 10150 4525 50  0000 C CNN
	1    10150 4525
	-1   0    0    1   
$EndComp
$Comp
L CONN_01X02 P10
U 1 1 5768A69A
P 10425 5150
F 0 "P10" H 10502 5191 50  0000 L CNN
F 1 "OUT3" H 10502 5100 50  0000 L CNN
F 2 "Terminal_Blocks:TerminalBlock_Pheonix_MKDS1.5-2pol" H 10425 5150 50  0001 C CNN
F 3 "" H 10425 5150 50  0000 C CNN
	1    10425 5150
	1    0    0    -1  
$EndComp
Text GLabel 10100 5100 0    60   Input ~ 0
LOAD3
$Comp
L +12V #PWR021
U 1 1 5768A6A1
P 10150 5250
F 0 "#PWR021" H 10150 5100 50  0001 C CNN
F 1 "+12V" H 10165 5423 50  0000 C CNN
F 2 "" H 10150 5250 50  0000 C CNN
F 3 "" H 10150 5250 50  0000 C CNN
	1    10150 5250
	-1   0    0    1   
$EndComp
Text GLabel 10100 5675 0    60   Input ~ 0
S-
$Comp
L GND #PWR022
U 1 1 57698846
P 1350 3075
F 0 "#PWR022" H 1350 2825 50  0001 C CNN
F 1 "GND" H 1355 2902 50  0000 C CNN
F 2 "" H 1350 3075 50  0000 C CNN
F 3 "" H 1350 3075 50  0000 C CNN
	1    1350 3075
	-1   0    0    1   
$EndComp
$Comp
L +12V #PWR023
U 1 1 57698CB8
P 975 3325
F 0 "#PWR023" H 975 3175 50  0001 C CNN
F 1 "+12V" H 990 3498 50  0000 C CNN
F 2 "" H 975 3325 50  0000 C CNN
F 3 "" H 975 3325 50  0000 C CNN
	1    975  3325
	-1   0    0    1   
$EndComp
$Comp
L D_Schottky D2
U 1 1 57699184
P 5800 2300
F 0 "D2" H 5800 2516 50  0000 C CNN
F 1 "D_Schottky" H 5800 2425 50  0000 C CNN
F 2 "Diodes_ThroughHole:Diode_DO-35_SOD27_Horizontal_RM10" H 5800 2300 50  0001 C CNN
F 3 "" H 5800 2300 50  0000 C CNN
	1    5800 2300
	0    -1   -1   0   
$EndComp
$Comp
L F_Small F1
U 1 1 57699338
P 1275 3250
F 0 "F1" H 1250 3150 50  0000 C CNN
F 1 "F_Small" H 1075 3325 50  0000 C CNN
F 2 "Fuse_Holders_and_Fuses:BladeFuse-Mini" H 1275 3250 50  0001 C CNN
F 3 "" H 1275 3250 50  0000 C CNN
	1    1275 3250
	1    0    0    -1  
$EndComp
$Comp
L D_Schottky D1
U 1 1 5769D053
P 1100 2325
F 0 "D1" H 1100 2541 50  0000 C CNN
F 1 "D_Schottky" H 1100 2450 50  0000 C CNN
F 2 "Diodes_ThroughHole:Diode_DO-35_SOD27_Horizontal_RM10" H 1100 2325 50  0001 C CNN
F 3 "" H 1100 2325 50  0000 C CNN
	1    1100 2325
	0    1    1    0   
$EndComp
$Comp
L R R3
U 1 1 5769E199
P 4875 2150
F 0 "R3" H 4945 2196 50  0000 L CNN
F 1 "R" H 4945 2105 50  0000 L CNN
F 2 "Resistors_ThroughHole:Resistor_Horizontal_RM10mm" V 4805 2150 50  0001 C CNN
F 3 "" H 4875 2150 50  0000 C CNN
	1    4875 2150
	1    0    0    -1  
$EndComp
$Comp
L R R4
U 1 1 5769E242
P 4875 2675
F 0 "R4" H 4945 2721 50  0000 L CNN
F 1 "R" H 4945 2630 50  0000 L CNN
F 2 "Resistors_ThroughHole:Resistor_Horizontal_RM10mm" V 4805 2675 50  0001 C CNN
F 3 "" H 4875 2675 50  0000 C CNN
	1    4875 2675
	1    0    0    -1  
$EndComp
Text GLabel 4975 2425 2    60   Input ~ 0
SOL_VOL
$Comp
L GND #PWR027
U 1 1 576A06DD
P 4875 2900
F 0 "#PWR027" H 4875 2650 50  0001 C CNN
F 1 "GND" H 4880 2727 50  0000 C CNN
F 2 "" H 4875 2900 50  0000 C CNN
F 3 "" H 4875 2900 50  0000 C CNN
	1    4875 2900
	1    0    0    -1  
$EndComp
Text GLabel 8700 4175 2    60   Input ~ 0
BAT_VOL
Text GLabel 8700 4375 2    60   Input ~ 0
SOL_VOL
$Comp
L Crystal Y1
U 1 1 576A28BC
P 1775 4700
F 0 "Y1" V 1729 4831 50  0000 L CNN
F 1 "Crystal" V 1820 4831 50  0000 L CNN
F 2 "Crystals:Crystal_HC49-U_Vertical" H 1775 4700 50  0001 C CNN
F 3 "" H 1775 4700 50  0000 C CNN
	1    1775 4700
	0    1    1    0   
$EndComp
$Comp
L C C9
U 1 1 576A33DD
P 1425 4425
F 0 "C9" H 1540 4471 50  0000 L CNN
F 1 "10pF" H 1540 4380 50  0000 L CNN
F 2 "Capacitors_SMD:C_0603_HandSoldering" H 1463 4275 50  0001 C CNN
F 3 "" H 1425 4425 50  0000 C CNN
	1    1425 4425
	0    -1   -1   0   
$EndComp
$Comp
L C C8
U 1 1 576A34FD
P 1375 4875
F 0 "C8" H 1490 4921 50  0000 L CNN
F 1 "10pF" H 1490 4830 50  0000 L CNN
F 2 "Capacitors_SMD:C_0603_HandSoldering" H 1413 4725 50  0001 C CNN
F 3 "" H 1375 4875 50  0000 C CNN
	1    1375 4875
	0    -1   -1   0   
$EndComp
$Comp
L GND #PWR028
U 1 1 576A36F6
P 1150 4425
F 0 "#PWR028" H 1150 4175 50  0001 C CNN
F 1 "GND" H 1155 4252 50  0000 C CNN
F 2 "" H 1150 4425 50  0000 C CNN
F 3 "" H 1150 4425 50  0000 C CNN
	1    1150 4425
	0    1    1    0   
$EndComp
$Comp
L GND #PWR029
U 1 1 576A3785
P 1150 4875
F 0 "#PWR029" H 1150 4625 50  0001 C CNN
F 1 "GND" H 1155 4702 50  0000 C CNN
F 2 "" H 1150 4875 50  0000 C CNN
F 3 "" H 1150 4875 50  0000 C CNN
	1    1150 4875
	0    1    1    0   
$EndComp
$Comp
L GND #PWR030
U 1 1 5769F048
P 3700 2950
F 0 "#PWR030" H 3700 2700 50  0001 C CNN
F 1 "GND" H 3705 2777 50  0000 C CNN
F 2 "" H 3700 2950 50  0000 C CNN
F 3 "" H 3700 2950 50  0000 C CNN
	1    3700 2950
	1    0    0    -1  
$EndComp
Text GLabel 3825 2475 2    60   Input ~ 0
BAT_VOL
$Comp
L R R2
U 1 1 5769E0ED
P 3700 2725
F 0 "R2" H 3770 2771 50  0000 L CNN
F 1 "R" H 3770 2680 50  0000 L CNN
F 2 "Resistors_ThroughHole:Resistor_Horizontal_RM10mm" V 3630 2725 50  0001 C CNN
F 3 "" H 3700 2725 50  0000 C CNN
	1    3700 2725
	1    0    0    -1  
$EndComp
$Comp
L R R1
U 1 1 5769DFC4
P 3700 2250
F 0 "R1" H 3770 2296 50  0000 L CNN
F 1 "R" H 3770 2205 50  0000 L CNN
F 2 "Resistors_ThroughHole:Resistor_Horizontal_RM10mm" V 3630 2250 50  0001 C CNN
F 3 "" H 3700 2250 50  0000 C CNN
	1    3700 2250
	1    0    0    -1  
$EndComp
$Comp
L +12V #PWR031
U 1 1 5769EDFB
P 3700 2000
F 0 "#PWR031" H 3700 1850 50  0001 C CNN
F 1 "+12V" H 3715 2173 50  0000 C CNN
F 2 "" H 3700 2000 50  0000 C CNN
F 3 "" H 3700 2000 50  0000 C CNN
	1    3700 2000
	1    0    0    -1  
$EndComp
$Comp
L GND #PWR?
U 1 1 576EB0C3
P 2050 725
F 0 "#PWR?" H 2050 475 50  0001 C CNN
F 1 "GND" H 2055 552 50  0000 C CNN
F 2 "" H 2050 725 50  0000 C CNN
F 3 "" H 2050 725 50  0000 C CNN
	1    2050 725 
	-1   0    0    1   
$EndComp
Text GLabel 10100 5775 0    60   Input ~ 0
S+
Text GLabel 4725 1975 0    60   Input ~ 0
S+
$Comp
L +12V #PWR?
U 1 1 577902B3
P 5800 2600
F 0 "#PWR?" H 5800 2450 50  0001 C CNN
F 1 "+12V" H 5815 2773 50  0000 C CNN
F 2 "" H 5800 2600 50  0000 C CNN
F 3 "" H 5800 2600 50  0000 C CNN
	1    5800 2600
	-1   0    0    1   
$EndComp
$Comp
L CONN_01X02 P11
U 1 1 5768A6AA
P 10425 5725
F 0 "P11" H 10502 5766 50  0000 L CNN
F 1 "SOLAR" H 10502 5675 50  0000 L CNN
F 2 "Terminal_Blocks:TerminalBlock_Pheonix_MKDS1.5-2pol" H 10425 5725 50  0001 C CNN
F 3 "" H 10425 5725 50  0000 C CNN
	1    10425 5725
	1    0    0    -1  
$EndComp
Wire Wire Line
	9450 1350 10450 1350
Wire Wire Line
	9950 1250 9950 1400
Connection ~ 9950 1350
Wire Wire Line
	9450 1750 10450 1750
Wire Wire Line
	9950 1700 9950 1850
Connection ~ 9950 1750
Wire Wire Line
	5275 3675 5275 3575
Wire Wire Line
	5275 3575 5475 3575
Wire Wire Line
	5375 3425 5375 3675
Wire Wire Line
	5475 3575 5475 3675
Connection ~ 5375 3575
Wire Wire Line
	5275 6075 5275 6175
Wire Wire Line
	5275 6175 5375 6175
Wire Wire Line
	5375 6175 5375 6075
Wire Wire Line
	5325 6175 5325 6325
Connection ~ 5325 6175
Wire Wire Line
	9450 1700 9450 1750
Wire Wire Line
	10450 1750 10450 1700
Wire Wire Line
	10450 1350 10450 1400
Wire Wire Line
	9450 1350 9450 1400
Wire Wire Line
	2550 1400 2750 1400
Wire Wire Line
	1450 1225 1450 1400
Wire Wire Line
	1450 850  2300 850 
Wire Wire Line
	2050 725  2050 1000
Wire Wire Line
	1150 1400 1550 1400
Wire Wire Line
	2600 850  2650 850 
Wire Wire Line
	2650 850  2650 1950
Connection ~ 2650 1400
Connection ~ 2050 850 
Connection ~ 1450 1400
Wire Wire Line
	1400 6600 1650 6600
Wire Wire Line
	1650 6600 1650 6650
Wire Wire Line
	1050 2600 1150 2600
Wire Wire Line
	1150 2600 1150 2700
Wire Wire Line
	2650 1950 1050 1950
Wire Wire Line
	1050 2050 1150 2050
Wire Wire Line
	1050 2150 1100 2150
Wire Wire Line
	1050 2500 1125 2500
Wire Wire Line
	2750 1400 2750 1350
Wire Wire Line
	1400 6400 1550 6400
Wire Wire Line
	1550 6500 1400 6500
Wire Wire Line
	8575 5475 8675 5475
Wire Wire Line
	8675 5575 8575 5575
Wire Wire Line
	3150 1425 3250 1425
Wire Wire Line
	4400 1125 4250 1125
Wire Wire Line
	4250 1275 4700 1275
Connection ~ 4500 1275
Wire Wire Line
	4250 1425 4325 1425
Wire Wire Line
	4325 1425 4325 1575
Wire Wire Line
	4325 1575 4725 1575
Connection ~ 4500 1575
Wire Wire Line
	3200 1425 3200 1450
Connection ~ 3200 1425
Wire Wire Line
	3200 1825 3200 1750
Wire Wire Line
	7425 1600 7600 1600
Wire Wire Line
	8100 1300 8250 1300
Wire Wire Line
	7500 1300 7600 1300
Wire Wire Line
	8100 1600 8200 1600
Wire Wire Line
	8100 1400 8225 1400
Wire Wire Line
	8575 5375 8675 5375
Wire Wire Line
	8575 5275 8675 5275
Wire Wire Line
	8100 1500 8200 1500
Wire Wire Line
	7525 1400 7600 1400
Wire Wire Line
	7525 1500 7600 1500
Wire Wire Line
	2300 2400 2500 2400
Wire Wire Line
	2300 2500 2500 2500
Wire Wire Line
	10175 2625 10275 2625
Wire Wire Line
	10175 2425 10275 2425
Wire Wire Line
	8200 2425 8325 2425
Wire Wire Line
	8300 2625 8200 2625
Wire Wire Line
	2075 5175 2175 5175
Wire Wire Line
	2075 5275 2175 5275
Wire Wire Line
	8575 5175 8700 5175
Wire Wire Line
	8700 5075 8575 5075
Wire Wire Line
	10175 2725 10300 2725
Wire Wire Line
	10325 2525 10175 2525
Wire Wire Line
	8200 2525 8425 2525
Wire Wire Line
	8425 2725 8200 2725
Wire Wire Line
	7400 2425 7400 2525
Wire Wire Line
	7400 2625 7400 2725
Wire Wire Line
	9375 2425 9375 2525
Wire Wire Line
	9375 2625 9375 2725
Wire Wire Line
	9275 2475 9375 2475
Connection ~ 9375 2475
Wire Wire Line
	9275 2675 9375 2675
Connection ~ 9375 2675
Wire Wire Line
	7250 2675 7400 2675
Connection ~ 7400 2675
Wire Wire Line
	7250 2475 7400 2475
Connection ~ 7400 2475
Wire Wire Line
	10225 3900 10150 3900
Wire Wire Line
	10150 3900 10150 3950
Wire Wire Line
	10100 3800 10225 3800
Wire Wire Line
	10225 4475 10150 4475
Wire Wire Line
	10150 4475 10150 4525
Wire Wire Line
	10100 4375 10225 4375
Wire Wire Line
	10225 5200 10150 5200
Wire Wire Line
	10150 5200 10150 5250
Wire Wire Line
	10100 5100 10225 5100
Wire Wire Line
	10100 5675 10225 5675
Wire Wire Line
	1350 3075 1350 3150
Wire Wire Line
	1350 3150 1450 3150
Wire Wire Line
	1450 3250 1375 3250
Wire Wire Line
	975  3250 1175 3250
Wire Wire Line
	975  3250 975  3325
Wire Wire Line
	1100 2150 1100 2175
Wire Wire Line
	1100 2475 1100 2500
Connection ~ 1100 2500
Wire Wire Line
	4875 2300 4875 2525
Wire Wire Line
	3700 2400 3700 2575
Wire Wire Line
	4975 2425 4875 2425
Connection ~ 4875 2425
Wire Wire Line
	3700 2475 3825 2475
Connection ~ 3700 2475
Wire Wire Line
	3700 2875 3700 2950
Wire Wire Line
	4875 2900 4875 2825
Wire Wire Line
	3700 2000 3700 2100
Wire Wire Line
	8575 4375 8700 4375
Wire Wire Line
	8700 4175 8575 4175
Wire Wire Line
	2175 4675 2050 4675
Wire Wire Line
	2050 4675 2050 4425
Wire Wire Line
	2050 4425 1575 4425
Wire Wire Line
	1775 4425 1775 4550
Wire Wire Line
	1775 4850 1775 4875
Wire Wire Line
	1525 4875 2175 4875
Wire Wire Line
	2175 4875 2175 4775
Connection ~ 1775 4425
Connection ~ 1775 4875
Wire Wire Line
	1150 4875 1225 4875
Wire Wire Line
	1150 4425 1275 4425
Wire Wire Line
	2075 5075 2175 5075
Wire Wire Line
	8575 4975 8700 4975
Wire Wire Line
	1450 850  1450 925 
Wire Wire Line
	8700 4475 8575 4475
Wire Wire Line
	4725 1975 5800 1975
Wire Wire Line
	5800 1975 5800 2150
Connection ~ 4875 1975
Wire Wire Line
	5800 2450 5800 2600
Wire Wire Line
	4875 2000 4875 1975
Wire Wire Line
	10100 5775 10225 5775
$EndSCHEMATC
