G04 #@! TF.FileFunction,Soldermask,Top*
%FSLAX46Y46*%
G04 Gerber Fmt 4.6, Leading zero omitted, Abs format (unit mm)*
G04 Created by KiCad (PCBNEW 4.1.0-alpha+201607071451+6971~46~ubuntu16.04.1-product) date Sat Jul  9 21:17:00 2016*
%MOMM*%
%LPD*%
G01*
G04 APERTURE LIST*
%ADD10C,0.100000*%
%ADD11R,1.600000X1.000000*%
%ADD12R,1.000000X1.600000*%
%ADD13R,2.900000X2.900000*%
%ADD14C,2.900000*%
%ADD15R,1.460000X1.050000*%
%ADD16R,2.432000X4.057600*%
%ADD17R,2.432000X1.416000*%
%ADD18R,2.432000X2.127200*%
%ADD19O,2.432000X2.127200*%
%ADD20R,2.432000X2.432000*%
%ADD21O,2.432000X2.432000*%
%ADD22O,1.009600X1.873200*%
%ADD23R,2.050000X0.800000*%
%ADD24O,1.900000X1.500000*%
%ADD25O,2.100000X1.600000*%
%ADD26R,2.900000X1.825000*%
%ADD27R,2.127200X2.127200*%
%ADD28O,2.127200X2.127200*%
%ADD29O,5.900000X4.200000*%
%ADD30O,5.700000X4.200000*%
%ADD31C,2.099260*%
%ADD32R,2.099260X2.099260*%
%ADD33C,1.901140*%
%ADD34C,2.398980*%
G04 APERTURE END LIST*
D10*
D11*
X143600000Y-65550000D03*
X143600000Y-66350000D03*
X143600000Y-67150000D03*
X143600000Y-67950000D03*
X143600000Y-68750000D03*
X143600000Y-69550000D03*
X143600000Y-70350000D03*
X143600000Y-71150000D03*
D12*
X145050000Y-72600000D03*
X145850000Y-72600000D03*
X146650000Y-72600000D03*
X147450000Y-72600000D03*
X148250000Y-72600000D03*
X149050000Y-72600000D03*
X149850000Y-72600000D03*
X150650000Y-72600000D03*
D11*
X152100000Y-71150000D03*
X152100000Y-70350000D03*
X152100000Y-69550000D03*
X152100000Y-68750000D03*
X152100000Y-67950000D03*
X152100000Y-67150000D03*
X152100000Y-66350000D03*
X152100000Y-65550000D03*
D12*
X150650000Y-64100000D03*
X149850000Y-64100000D03*
X149050000Y-64100000D03*
X148250000Y-64100000D03*
X147450000Y-64100000D03*
X146650000Y-64100000D03*
X145850000Y-64100000D03*
X145050000Y-64100000D03*
D13*
X109100000Y-45175000D03*
D14*
X104100000Y-45175000D03*
D15*
X147236000Y-77282000D03*
X147236000Y-78232000D03*
X147236000Y-79182000D03*
X149436000Y-79182000D03*
X149436000Y-77282000D03*
D16*
X121252000Y-66245000D03*
D17*
X114648000Y-66245000D03*
X114648000Y-68531000D03*
X114648000Y-63959000D03*
D18*
X131875000Y-71495000D03*
D19*
X131875000Y-74035000D03*
X131875000Y-76575000D03*
D18*
X157480000Y-78232000D03*
D19*
X157480000Y-75692000D03*
X157480000Y-73152000D03*
D20*
X120860000Y-87325000D03*
D21*
X123400000Y-87325000D03*
D22*
X134395000Y-59169000D03*
X135665000Y-59169000D03*
X136935000Y-59169000D03*
X138205000Y-59169000D03*
X138205000Y-53581000D03*
X136935000Y-53581000D03*
X135665000Y-53581000D03*
X134395000Y-53581000D03*
X145740000Y-59225000D03*
X147010000Y-59225000D03*
X148280000Y-59225000D03*
X149550000Y-59225000D03*
X149550000Y-53637000D03*
X148280000Y-53637000D03*
X147010000Y-53637000D03*
X145740000Y-53637000D03*
D23*
X154178000Y-87152000D03*
X154178000Y-86502000D03*
X154178000Y-85852900D03*
X154178000Y-85202000D03*
X154178000Y-84552000D03*
D24*
X154053000Y-88277000D03*
X154053000Y-83427000D03*
D25*
X157053000Y-88577000D03*
X157053000Y-83127000D03*
D26*
X157303000Y-86814500D03*
X157303000Y-84889500D03*
D27*
X145989040Y-85079840D03*
D28*
X145989040Y-87619840D03*
X143449040Y-85079840D03*
X143449040Y-87619840D03*
X140909040Y-85079840D03*
X140909040Y-87619840D03*
X138369040Y-85079840D03*
X138369040Y-87619840D03*
D29*
X126300000Y-54525000D03*
D30*
X118300000Y-54525000D03*
D31*
X102665000Y-53750000D03*
D32*
X112825000Y-53750000D03*
D31*
X123420000Y-82000000D03*
D32*
X123420000Y-71840000D03*
D13*
X155950000Y-45075000D03*
D14*
X150950000Y-45075000D03*
D13*
X144650000Y-44950000D03*
D14*
X139650000Y-44950000D03*
D13*
X120125000Y-45150000D03*
D14*
X115125000Y-45150000D03*
D13*
X133300000Y-45025000D03*
D14*
X128300000Y-45025000D03*
D33*
X137668000Y-64361060D03*
X137668000Y-69242940D03*
D34*
X109220000Y-57658000D03*
X109220000Y-67818000D03*
X104175000Y-57690000D03*
X104175000Y-67850000D03*
X104200000Y-82060000D03*
X104200000Y-71900000D03*
X109220000Y-71882000D03*
X109220000Y-82042000D03*
M02*
